Task 2
…
store_monthly

# A tibble: 3,169 × 13
    year month store_nbr date       prod_qty_sum prod_qty_avg tot_sales_sum
   <dbl> <dbl> <fct>     <date>            <dbl>        <dbl>         <dbl>
 1  2018     7 1         2018-07-01           59         1.23          192.
 2  2018     7 2         2018-07-01           45         1.18          146.
 3  2018     7 3         2018-07-01          263         2.44         1165.
 4  2018     7 4         2018-07-01          302         2.50         1318.
 5  2018     7 5         2018-07-01          236         2.59          792.
 6  2018     7 6         2018-07-01           71         1.51          250.
 7  2018     7 7         2018-07-01          224         2.26         1004.
 8  2018     7 8         2018-07-01           81         2.13          361.
 9  2018     7 9         2018-07-01           85         1.85          290.
10  2018     7 10        2018-07-01          238         2.43          861.
# ℹ 3,159 more rows
# ℹ 6 more variables: tot_sales_avg <dbl>, pack_size_sum <dbl>,
#   pack_size_avg <dbl>, transx_sum <int>, transx_avg <dbl>, cust_nbr <int>
…
